module main

go 1.16

require (
	github.com/getsentry/sentry-go v0.11.0
	github.com/gin-gonic/gin v1.7.2
	go.opentelemetry.io/contrib/instrumentation/github.com/gin-gonic/gin/otelgin v0.20.0
	go.opentelemetry.io/otel v0.20.0
	go.opentelemetry.io/otel/exporters/otlp v0.20.0
	go.opentelemetry.io/otel/sdk v0.20.0
	go.opentelemetry.io/otel/trace v0.20.0
	google.golang.org/grpc v1.38.0
)
